{
    "political":[
        {
            "party": "Democratic",
            "districtNumber": "5",
            "districtPercent": "38.46%",
            "voteNumber": "2,684,292",
            "votePercent": "48.7%"
        },
        {
            "party":"Republican",
            "districtNumber": "8",
            "districtPercent": "61.54%",
            "voteNumber": "2,758,773",
            "votePercent": "50.1%"
        }
    ],
    "demographic": [
        {
            "ethnicity": "White",
            "population":"7,128,036",
            "populationPercent":"62.89%"
        },
        {
            "ethnicity": "African American",
            "population":"2,344,553",
            "populationPercent":"20.68%"
        },
        {
            "ethnicity":"Hispanic",
            "population":"1,118,596",
            "populationPercent":"9.87%"
        },
        {
            "ethnicity":"American Indian and Alaska Native",
            "population": "318.2798",
            "populationPercent": "2.81%"
        },
        {
            "ethnicity": "Asian",
            "population": "425,449",
            "populationPercent":"3.75%"
        }
    ],
    "district":[
        {
            "number":"1",
            "populationEquality":"87.76",
            "polsbyPopper":"11.15",
            "efficiencyGap":"83.79",
            "objFunction": "63.79"
        },
        {
            "number":"2",
            "populationEquality":"74.34",
            "polsbyPopper":"5.97",
            "efficiencyGap":"83.79",
            "objFunction": "61.73"
        },
        {
            "number":"3",
            "populationEquality":"83.25",
            "polsbyPopper":"9.85",
            "efficiencyGap":"83.79",
            "objFunction": "60.99"
        }
    ]
}
