{"features":[{"STATEFP20": "13", "GEOID20": "1301", "CD116FP": "01", "TOTALPOP": 377015, "TOTALHIS": 28238, "TOTALNONHIS": 348777, "TOTALASIAN": 8201, "TOTALWHITE": 216688, "TOTALAA": 105017, "TOTALVAP": 289493, "TOTALVAPHIS": 18811, "TOTALVAPNONHIS": 270682, "TOTALVAPASIAN": 6761, "TOTALVAPWHITE": 174563, "TOTALVAPAA": 77573},
 {"STATEFP20": "13", "GEOID20": "1302", "CD116FP": "02", "TOTALPOP": 337914, "TOTALHIS": 18875, "TOTALNONHIS": 319039, "TOTALASIAN": 3871, "TOTALWHITE": 131209, "TOTALAA": 171944, "TOTALVAP": 260447, "TOTALVAPHIS": 12627, "TOTALVAPNONHIS": 247820, "TOTALVAPASIAN": 3135, "TOTALVAPWHITE": 107981, "TOTALVAPAA": 129058},
 {"STATEFP20": "13", "GEOID20": "1303", "CD116FP": "03", "TOTALPOP": 388709, "TOTALHIS": 25617, "TOTALNONHIS": 363092, "TOTALASIAN": 9152, "TOTALWHITE": 238010, "TOTALAA": 97878, "TOTALVAP": 297395, "TOTALVAPHIS": 16605, "TOTALVAPNONHIS": 280790, "TOTALVAPASIAN": 6957, "TOTALVAPWHITE": 189984, "TOTALVAPAA": 72612},
 {"STATEFP20": "13", "GEOID20": "1304", "CD116FP": "04", "TOTALPOP": 404869, "TOTALHIS": 44093, "TOTALNONHIS": 360776, "TOTALASIAN": 23303, "TOTALWHITE": 83063, "TOTALAA": 237351, "TOTALVAP": 305775, "TOTALVAPHIS": 28921, "TOTALVAPNONHIS": 276854, "TOTALVAPASIAN": 17340, "TOTALVAPWHITE": 70266, "TOTALVAPAA": 177824},
 {"STATEFP20": "13", "GEOID20": "1305", "CD116FP": "05", "TOTALPOP": 380014, "TOTALHIS": 32581, "TOTALNONHIS": 347433, "TOTALASIAN": 15657, "TOTALWHITE": 107959, "TOTALAA": 208359, "TOTALVAP": 307285, "TOTALVAPHIS": 23255, "TOTALVAPNONHIS": 284030, "TOTALVAPASIAN": 13988, "TOTALVAPWHITE": 94813, "TOTALVAPAA": 164068},
 {"STATEFP20": "13", "GEOID20": "1306", "CD116FP": "06", "TOTALPOP": 375861, "TOTALHIS": 48284, "TOTALNONHIS": 327577, "TOTALASIAN": 49629, "TOTALWHITE": 210373, "TOTALAA": 48113, "TOTALVAP": 289957, "TOTALVAPHIS": 32888, "TOTALVAPNONHIS": 257069, "TOTALVAPASIAN": 37163, "TOTALVAPWHITE": 169363, "TOTALVAPAA": 38047},
 {"STATEFP20": "13", "GEOID20": "1307", "CD116FP": "07", "TOTALPOP": 442338, "TOTALHIS": 91939, "TOTALNONHIS": 350399, "TOTALASIAN": 75107, "TOTALWHITE": 168927, "TOTALAA": 86912, "TOTALVAP": 326148, "TOTALVAPHIS": 61266, "TOTALVAPNONHIS": 264882, "TOTALVAPASIAN": 55775, "TOTALVAPWHITE": 134671, "TOTALVAPAA": 62939},
 {"STATEFP20": "13", "GEOID20": "1308", "CD116FP": "08", "TOTALPOP": 355255, "TOTALHIS": 25825, "TOTALNONHIS": 329430, "TOTALASIAN": 5704, "TOTALWHITE": 202996, "TOTALAA": 106776, "TOTALVAP": 272184, "TOTALVAPHIS": 17268, "TOTALVAPNONHIS": 254916, "TOTALVAPASIAN": 4558, "TOTALVAPWHITE": 162687, "TOTALVAPAA": 78899},
 {"STATEFP20": "13", "GEOID20": "1309", "CD116FP": "09", "TOTALPOP": 387960, "TOTALHIS": 52844, "TOTALNONHIS": 335116, "TOTALASIAN": 5968, "TOTALWHITE": 289370, "TOTALAA": 23760, "TOTALVAP": 300759, "TOTALVAPHIS": 33710, "TOTALVAPNONHIS": 267049, "TOTALVAPASIAN": 4601, "TOTALVAPWHITE": 233798, "TOTALVAPAA": 17944},
 {"STATEFP20": "13", "GEOID20": "1310", "CD116FP": "10", "TOTALPOP": 388111, "TOTALHIS": 26540, "TOTALNONHIS": 361571, "TOTALASIAN": 9651, "TOTALWHITE": 240934, "TOTALAA": 94885, "TOTALVAP": 300736, "TOTALVAPHIS": 17451, "TOTALVAPNONHIS": 283285, "TOTALVAPASIAN": 7547, "TOTALVAPWHITE": 194150, "TOTALVAPAA": 71220},
 {"STATEFP20": "13", "GEOID20": "1311", "CD116FP": "11", "TOTALPOP": 413377, "TOTALHIS": 51548, "TOTALNONHIS": 361829, "TOTALASIAN": 14215, "TOTALWHITE": 257720, "TOTALAA": 67509, "TOTALVAP": 321785, "TOTALVAPHIS": 34571, "TOTALVAPNONHIS": 287214, "TOTALVAPASIAN": 11555, "TOTALVAPWHITE": 208743, "TOTALVAPAA": 52300},
 {"STATEFP20": "13", "GEOID20": "1312", "CD116FP": "12", "TOTALPOP": 360649, "TOTALHIS": 24890, "TOTALNONHIS": 335759, "TOTALASIAN": 7179, "TOTALWHITE": 189232, "TOTALAA": 123693, "TOTALVAP": 276338, "TOTALVAPHIS": 16515, "TOTALVAPNONHIS": 259823, "TOTALVAPASIAN": 5886, "TOTALVAPWHITE": 152149, "TOTALVAPAA": 91910},
 {"STATEFP20": "13", "GEOID20": "1313", "CD116FP": "13", "TOTALPOP": 404828, "TOTALHIS": 48505, "TOTALNONHIS": 356323, "TOTALASIAN": 9521, "TOTALWHITE": 85495, "TOTALAA": 244312, "TOTALVAP": 304392, "TOTALVAPHIS": 31566, "TOTALVAPNONHIS": 272826, "TOTALVAPASIAN": 7638, "TOTALVAPWHITE": 72766, "TOTALVAPAA": 181245},
 {"STATEFP20": "13", "GEOID20": "1314", "CD116FP": "14", "TOTALPOP": 364537, "TOTALHIS": 43067, "TOTALNONHIS": 321470, "TOTALASIAN": 3603, "TOTALWHITE": 267220, "TOTALAA": 34787, "TOTALVAP": 276910, "TOTALVAPHIS": 27000, "TOTALVAPNONHIS": 249910, "TOTALVAPASIAN": 2751, "TOTALVAPWHITE": 211403, "TOTALVAPAA": 25591}]}